// Jest Snapshot v1, https://goo.gl/fbAQLP

exports[`renders correctly 1`] = `
<div>
  <nav
    className="navbar navbar-default"
  >
    <div
      className="container"
    >
      <div
        className="navbar-header"
      >
        <a
          className="navbar-brand"
          href="https://www.fusionalliance.com"
        >
          <img
            alt=""
            className="logo"
            src="fusion_dots.png"
          />
          <img
            alt="Fusion Alliance"
            className="logo"
            src="fusion_name.png"
          />
        </a>
      </div>
      <div
        className="navbar-header"
      >
        <a
          className="navbar-brand"
          href="/"
          onClick={[Function]}
        >
          AutoRenter
        </a>
      </div>
      <ul
        className="nav navbar-nav navbar-right"
        role={null}
      >
        <li
          className=""
          role="presentation"
          style={undefined}
        >
          <a
            href="/login"
            onClick={[Function]}
            onKeyDown={[Function]}
          >
            <div
              className="btn undefined"
            >
              Login
            </div>
          </a>
        </li>
      </ul>
    </div>
  </nav>
</div>
`;
